%YAML 1.1
%TAG !u! tag:unity3d.com,2011:
--- !u!29 &1
OcclusionCullingSettings:
  m_ObjectHideFlags: 0
  serializedVersion: 2
  m_OcclusionBakeSettings:
    smallestOccluder: 5
    smallestHole: 0.25
    backfaceThreshold: 100
  m_SceneGUID: 00000000000000000000000000000000
  m_OcclusionCullingData: {fileID: 0}
--- !u!104 &2
RenderSettings:
  m_ObjectHideFlags: 0
  serializedVersion: 8
  m_Fog: 0
  m_FogColor: {r: 0.5, g: 0.5, b: 0.5, a: 1}
  m_FogMode: 3
  m_FogDensity: 0.01
  m_LinearFogStart: 0
  m_LinearFogEnd: 300
  m_AmbientSkyColor: {r: 0.212, g: 0.227, b: 0.259, a: 1}
  m_AmbientEquatorColor: {r: 0.114, g: 0.125, b: 0.133, a: 1}
  m_AmbientGroundColor: {r: 0.047, g: 0.043, b: 0.035, a: 1}
  m_AmbientIntensity: 1
  m_AmbientMode: 3
  m_SubtractiveShadowColor: {r: 0.42, g: 0.478, b: 0.627, a: 1}
  m_SkyboxMaterial: {fileID: 0}
  m_HaloStrength: 0.5
  m_FlareStrength: 1
  m_FlareFadeSpeed: 3
  m_HaloTexture: {fileID: 0}
  m_SpotCookie: {fileID: 10001, guid: 0000000000000000e000000000000000, type: 0}
  m_DefaultReflectionMode: 0
  m_DefaultReflectionResolution: 128
  m_ReflectionBounces: 1
  m_ReflectionIntensity: 1
  m_CustomReflection: {fileID: 0}
  m_Sun: {fileID: 0}
  m_IndirectSpecularColor: {r: 0, g: 0, b: 0, a: 1}
--- !u!157 &3
LightmapSettings:
  m_ObjectHideFlags: 0
  serializedVersion: 11
  m_GIWorkflowMode: 1
  m_GISettings:
    serializedVersion: 2
    m_BounceScale: 1
    m_IndirectOutputScale: 1
    m_AlbedoBoost: 1
    m_TemporalCoherenceThreshold: 1
    m_EnvironmentLightingMode: 0
    m_EnableBakedLightmaps: 0
    m_EnableRealtimeLightmaps: 0
  m_LightmapEditorSettings:
    serializedVersion: 9
    m_Resolution: 2
    m_BakeResolution: 40
    m_TextureWidth: 1024
    m_TextureHeight: 1024
    m_AO: 0
    m_AOMaxDistance: 1
    m_CompAOExponent: 1
    m_CompAOExponentDirect: 0
    m_Padding: 2
    m_LightmapParameters: {fileID: 0}
    m_LightmapsBakeMode: 1
    m_TextureCompression: 1
    m_FinalGather: 0
    m_FinalGatherFiltering: 1
    m_FinalGatherRayCount: 256
    m_ReflectionCompression: 2
    m_MixedBakeMode: 2
    m_BakeBackend: 0
    m_PVRSampling: 1
    m_PVRDirectSampleCount: 32
    m_PVRSampleCount: 500
    m_PVRBounces: 2
    m_PVRFilterTypeDirect: 0
    m_PVRFilterTypeIndirect: 0
    m_PVRFilterTypeAO: 0
    m_PVRFilteringMode: 1
    m_PVRCulling: 1
    m_PVRFilteringGaussRadiusDirect: 1
    m_PVRFilteringGaussRadiusIndirect: 5
    m_PVRFilteringGaussRadiusAO: 2
    m_PVRFilteringAtrousPositionSigmaDirect: 0.5
    m_PVRFilteringAtrousPositionSigmaIndirect: 2
    m_PVRFilteringAtrousPositionSigmaAO: 1
    m_ShowResolutionOverlay: 1
  m_LightingDataAsset: {fileID: 0}
  m_UseShadowmask: 1
--- !u!196 &4
NavMeshSettings:
  serializedVersion: 2
  m_ObjectHideFlags: 0
  m_BuildSettings:
    serializedVersion: 2
    agentTypeID: 0
    agentRadius: 0.5
    agentHeight: 2
    agentSlope: 45
    agentClimb: 0.4
    ledgeDropHeight: 0
    maxJumpAcrossDistance: 0
    minRegionArea: 2
    manualCellSize: 0
    cellSize: 0.16666667
    manualTileSize: 0
    tileSize: 256
    accuratePlacement: 0
    debug:
      m_Flags: 0
  m_NavMeshData: {fileID: 0}
--- !u!1001 &513504871
Prefab:
  m_ObjectHideFlags: 0
  serializedVersion: 2
  m_Modification:
    m_TransformParent: {fileID: 0}
    m_Modifications:
    - target: {fileID: 4977817364209186, guid: 4e53c9bf3ee6cdb4c9186451d197c985, type: 2}
      propertyPath: m_LocalPosition.x
      value: 304.21
      objectReference: {fileID: 0}
    - target: {fileID: 4977817364209186, guid: 4e53c9bf3ee6cdb4c9186451d197c985, type: 2}
      propertyPath: m_LocalPosition.y
      value: 44.375
      objectReference: {fileID: 0}
    - target: {fileID: 4977817364209186, guid: 4e53c9bf3ee6cdb4c9186451d197c985, type: 2}
      propertyPath: m_LocalPosition.z
      value: 0
      objectReference: {fileID: 0}
    - target: {fileID: 4977817364209186, guid: 4e53c9bf3ee6cdb4c9186451d197c985, type: 2}
      propertyPath: m_LocalRotation.x
      value: -0
      objectReference: {fileID: 0}
    - target: {fileID: 4977817364209186, guid: 4e53c9bf3ee6cdb4c9186451d197c985, type: 2}
      propertyPath: m_LocalRotation.y
      value: -0
      objectReference: {fileID: 0}
    - target: {fileID: 4977817364209186, guid: 4e53c9bf3ee6cdb4c9186451d197c985, type: 2}
      propertyPath: m_LocalRotation.z
      value: -0
      objectReference: {fileID: 0}
    - target: {fileID: 4977817364209186, guid: 4e53c9bf3ee6cdb4c9186451d197c985, type: 2}
      propertyPath: m_LocalRotation.w
      value: 1
      objectReference: {fileID: 0}
    - target: {fileID: 4977817364209186, guid: 4e53c9bf3ee6cdb4c9186451d197c985, type: 2}
      propertyPath: m_RootOrder
      value: 6
      objectReference: {fileID: 0}
    - target: {fileID: 114038952352095808, guid: 4e53c9bf3ee6cdb4c9186451d197c985,
        type: 2}
      propertyPath: sprite
      value: 
      objectReference: {fileID: 2800000, guid: 9bda0794f756ab14abd30f71de9a4792, type: 3}
    - target: {fileID: 114038952352095808, guid: 4e53c9bf3ee6cdb4c9186451d197c985,
        type: 2}
      propertyPath: name
      value: Master of Time and Space
      objectReference: {fileID: 0}
    - target: {fileID: 114038952352095808, guid: 4e53c9bf3ee6cdb4c9186451d197c985,
        type: 2}
      propertyPath: level
      value: 20
      objectReference: {fileID: 0}
    - target: {fileID: 114038952352095808, guid: 4e53c9bf3ee6cdb4c9186451d197c985,
        type: 2}
      propertyPath: health
      value: 200
      objectReference: {fileID: 0}
    - target: {fileID: 114038952352095808, guid: 4e53c9bf3ee6cdb4c9186451d197c985,
        type: 2}
      propertyPath: attack
      value: 25
      objectReference: {fileID: 0}
    - target: {fileID: 114038952352095808, guid: 4e53c9bf3ee6cdb4c9186451d197c985,
        type: 2}
      propertyPath: speed
      value: 100
      objectReference: {fileID: 0}
    - target: {fileID: 114038952352095808, guid: 4e53c9bf3ee6cdb4c9186451d197c985,
        type: 2}
      propertyPath: canRunAway
      value: 1
      objectReference: {fileID: 0}
    - target: {fileID: 114038952352095808, guid: 4e53c9bf3ee6cdb4c9186451d197c985,
        type: 2}
      propertyPath: battleMoney
      value: 50
      objectReference: {fileID: 0}
    - target: {fileID: 114038952352095808, guid: 4e53c9bf3ee6cdb4c9186451d197c985,
        type: 2}
      propertyPath: battleItem
      value: 2
      objectReference: {fileID: 0}
    - target: {fileID: 114038952352095808, guid: 4e53c9bf3ee6cdb4c9186451d197c985,
        type: 2}
      propertyPath: defence
      value: 20
      objectReference: {fileID: 0}
    - target: {fileID: 114038952352095808, guid: 4e53c9bf3ee6cdb4c9186451d197c985,
        type: 2}
      propertyPath: maximumMagic
      value: 30
      objectReference: {fileID: 0}
    - target: {fileID: 114038952352095808, guid: 4e53c9bf3ee6cdb4c9186451d197c985,
        type: 2}
      propertyPath: luck
      value: 1
      objectReference: {fileID: 0}
    - target: {fileID: 114038952352095808, guid: 4e53c9bf3ee6cdb4c9186451d197c985,
        type: 2}
      propertyPath: special1Text
      value: shouted "YOU WILL NOT WIN"
      objectReference: {fileID: 0}
    - target: {fileID: 114038952352095808, guid: 4e53c9bf3ee6cdb4c9186451d197c985,
        type: 2}
      propertyPath: special1Magic
      value: 4
      objectReference: {fileID: 0}
    - target: {fileID: 114038952352095808, guid: 4e53c9bf3ee6cdb4c9186451d197c985,
        type: 2}
      propertyPath: special1Value
      value: 20
      objectReference: {fileID: 0}
    - target: {fileID: 114038952352095808, guid: 4e53c9bf3ee6cdb4c9186451d197c985,
        type: 2}
      propertyPath: special2
      value: 3
      objectReference: {fileID: 0}
    - target: {fileID: 114038952352095808, guid: 4e53c9bf3ee6cdb4c9186451d197c985,
        type: 2}
      propertyPath: special2Text
      value: warms up their voice
      objectReference: {fileID: 0}
    - target: {fileID: 114038952352095808, guid: 4e53c9bf3ee6cdb4c9186451d197c985,
        type: 2}
      propertyPath: special2Magic
      value: 5
      objectReference: {fileID: 0}
    - target: {fileID: 114038952352095808, guid: 4e53c9bf3ee6cdb4c9186451d197c985,
        type: 2}
      propertyPath: special2Value
      value: 0.1
      objectReference: {fileID: 0}
    m_RemovedComponents: []
  m_ParentPrefab: {fileID: 100100000, guid: 4e53c9bf3ee6cdb4c9186451d197c985, type: 2}
  m_IsPrefabParent: 0
--- !u!1 &542414472
GameObject:
  m_ObjectHideFlags: 0
  m_PrefabParentObject: {fileID: 0}
  m_PrefabInternal: {fileID: 0}
  serializedVersion: 5
  m_Component:
  - component: {fileID: 542414475}
  - component: {fileID: 542414474}
  - component: {fileID: 542414473}
  m_Layer: 0
  m_Name: StairsToCentralHall-Floor1
  m_TagString: Untagged
  m_Icon: {fileID: 0}
  m_NavMeshLayer: 0
  m_StaticEditorFlags: 0
  m_IsActive: 1
--- !u!114 &542414473
MonoBehaviour:
  m_ObjectHideFlags: 0
  m_PrefabParentObject: {fileID: 0}
  m_PrefabInternal: {fileID: 0}
  m_GameObject: {fileID: 542414472}
  m_Enabled: 1
  m_EditorHideFlags: 0
  m_Script: {fileID: 11500000, guid: 0f17759d8c0e6704cbc0d9ff507a876c, type: 3}
  m_Name: 
  m_EditorClassIdentifier: 
  newScene: CentralHall-Floor1
  newPosition: {x: 0, y: 0}
--- !u!61 &542414474
BoxCollider2D:
  m_ObjectHideFlags: 0
  m_PrefabParentObject: {fileID: 0}
  m_PrefabInternal: {fileID: 0}
  m_GameObject: {fileID: 542414472}
  m_Enabled: 1
  m_Density: 1
  m_Material: {fileID: 0}
  m_IsTrigger: 1
  m_UsedByEffector: 0
  m_UsedByComposite: 0
  m_Offset: {x: 0, y: 0}
  m_SpriteTilingProperty:
    border: {x: 0, y: 0, z: 0, w: 0}
    pivot: {x: 0, y: 0}
    oldSize: {x: 0, y: 0}
    newSize: {x: 0, y: 0}
    adaptiveTilingThreshold: 0
    drawMode: 0
    adaptiveTiling: 0
  m_AutoTiling: 0
  serializedVersion: 2
  m_Size: {x: 1, y: 1}
  m_EdgeRadius: 0
--- !u!4 &542414475
Transform:
  m_ObjectHideFlags: 0
  m_PrefabParentObject: {fileID: 0}
  m_PrefabInternal: {fileID: 0}
  m_GameObject: {fileID: 542414472}
  m_LocalRotation: {x: 0, y: 0, z: 0, w: 1}
  m_LocalPosition: {x: 10.78, y: 7.41, z: -0.0078125}
  m_LocalScale: {x: 1, y: 1, z: 1}
  m_Children: []
  m_Father: {fileID: 0}
  m_RootOrder: 7
  m_LocalEulerAnglesHint: {x: 0, y: 0, z: 0}
--- !u!1001 &898805809
Prefab:
  m_ObjectHideFlags: 0
  serializedVersion: 2
  m_Modification:
    m_TransformParent: {fileID: 0}
    m_Modifications:
    - target: {fileID: 114485212689137276, guid: 029c17544fabbde43bb73a9f1d1359b7,
        type: 2}
      propertyPath: dialogue.Array.size
      value: 2
      objectReference: {fileID: 0}
    - target: {fileID: 4704459060425080, guid: 029c17544fabbde43bb73a9f1d1359b7, type: 2}
      propertyPath: m_LocalPosition.x
      value: -2.1382096
      objectReference: {fileID: 0}
    - target: {fileID: 4704459060425080, guid: 029c17544fabbde43bb73a9f1d1359b7, type: 2}
      propertyPath: m_LocalPosition.y
      value: -1.9003263
      objectReference: {fileID: 0}
    - target: {fileID: 4704459060425080, guid: 029c17544fabbde43bb73a9f1d1359b7, type: 2}
      propertyPath: m_LocalPosition.z
      value: 0
      objectReference: {fileID: 0}
    - target: {fileID: 4704459060425080, guid: 029c17544fabbde43bb73a9f1d1359b7, type: 2}
      propertyPath: m_LocalRotation.x
      value: 0
      objectReference: {fileID: 0}
    - target: {fileID: 4704459060425080, guid: 029c17544fabbde43bb73a9f1d1359b7, type: 2}
      propertyPath: m_LocalRotation.y
      value: 0
      objectReference: {fileID: 0}
    - target: {fileID: 4704459060425080, guid: 029c17544fabbde43bb73a9f1d1359b7, type: 2}
      propertyPath: m_LocalRotation.z
      value: 0
      objectReference: {fileID: 0}
    - target: {fileID: 4704459060425080, guid: 029c17544fabbde43bb73a9f1d1359b7, type: 2}
      propertyPath: m_LocalRotation.w
      value: 1
      objectReference: {fileID: 0}
    - target: {fileID: 4704459060425080, guid: 029c17544fabbde43bb73a9f1d1359b7, type: 2}
      propertyPath: m_RootOrder
      value: 1
      objectReference: {fileID: 0}
    - target: {fileID: 1344385287322598, guid: 029c17544fabbde43bb73a9f1d1359b7, type: 2}
      propertyPath: m_Name
      value: Character (1)
      objectReference: {fileID: 0}
    - target: {fileID: 212996946334501392, guid: 029c17544fabbde43bb73a9f1d1359b7,
        type: 2}
      propertyPath: m_Sprite
      value: 
      objectReference: {fileID: 21300000, guid: 007db2b482e3ecf41be25ac28e37a1bf,
        type: 3}
    - target: {fileID: 114485212689137276, guid: 029c17544fabbde43bb73a9f1d1359b7,
        type: 2}
      propertyPath: dialogue.Array.data[1]
      value: I'm not surprised some are empty
      objectReference: {fileID: 0}
    - target: {fileID: 114485212689137276, guid: 029c17544fabbde43bb73a9f1d1359b7,
        type: 2}
      propertyPath: dialogue.Array.data[2]
      value: I don't know why I'm here, but it's a bit awkward to just walk out isn't
        it?
      objectReference: {fileID: 0}
    - target: {fileID: 114485212689137276, guid: 029c17544fabbde43bb73a9f1d1359b7,
        type: 2}
      propertyPath: dialogue.Array.data[0]
      value: Hmmm.... sure are a lot of chests around here
      objectReference: {fileID: 0}
    m_RemovedComponents: []
  m_ParentPrefab: {fileID: 100100000, guid: 029c17544fabbde43bb73a9f1d1359b7, type: 2}
  m_IsPrefabParent: 0
--- !u!1 &1047408885
GameObject:
  m_ObjectHideFlags: 0
  m_PrefabParentObject: {fileID: 0}
  m_PrefabInternal: {fileID: 0}
  serializedVersion: 5
  m_Component:
  - component: {fileID: 1047408888}
  - component: {fileID: 1047408887}
  - component: {fileID: 1047408886}
  m_Layer: 0
  m_Name: EventSystem
  m_TagString: Untagged
  m_Icon: {fileID: 0}
  m_NavMeshLayer: 0
  m_StaticEditorFlags: 0
  m_IsActive: 1
--- !u!114 &1047408886
MonoBehaviour:
  m_ObjectHideFlags: 0
  m_PrefabParentObject: {fileID: 0}
  m_PrefabInternal: {fileID: 0}
  m_GameObject: {fileID: 1047408885}
  m_Enabled: 1
  m_EditorHideFlags: 0
  m_Script: {fileID: 1077351063, guid: f70555f144d8491a825f0804e09c671c, type: 3}
  m_Name: 
  m_EditorClassIdentifier: 
  m_HorizontalAxis: Horizontal
  m_VerticalAxis: Vertical
  m_SubmitButton: Submit
  m_CancelButton: Cancel
  m_InputActionsPerSecond: 10
  m_RepeatDelay: 0.5
  m_ForceModuleActive: 0
--- !u!114 &1047408887
MonoBehaviour:
  m_ObjectHideFlags: 0
  m_PrefabParentObject: {fileID: 0}
  m_PrefabInternal: {fileID: 0}
  m_GameObject: {fileID: 1047408885}
  m_Enabled: 1
  m_EditorHideFlags: 0
  m_Script: {fileID: -619905303, guid: f70555f144d8491a825f0804e09c671c, type: 3}
  m_Name: 
  m_EditorClassIdentifier: 
  m_FirstSelected: {fileID: 0}
  m_sendNavigationEvents: 1
  m_DragThreshold: 5
--- !u!4 &1047408888
Transform:
  m_ObjectHideFlags: 0
  m_PrefabParentObject: {fileID: 0}
  m_PrefabInternal: {fileID: 0}
  m_GameObject: {fileID: 1047408885}
  m_LocalRotation: {x: 0, y: 0, z: 0, w: 1}
  m_LocalPosition: {x: -123.5, y: 116.3, z: 0}
  m_LocalScale: {x: 1, y: 1, z: 1}
  m_Children: []
  m_Father: {fileID: 0}
  m_RootOrder: 0
  m_LocalEulerAnglesHint: {x: 0, y: 0, z: 0}
--- !u!1 &1170023560
GameObject:
  m_ObjectHideFlags: 0
  m_PrefabParentObject: {fileID: 0}
  m_PrefabInternal: {fileID: 0}
  serializedVersion: 5
  m_Component:
  - component: {fileID: 1170023563}
  - component: {fileID: 1170023562}
  - component: {fileID: 1170023561}
  m_Layer: 0
  m_Name: ExitToWorldMap
  m_TagString: Untagged
  m_Icon: {fileID: 0}
  m_NavMeshLayer: 0
  m_StaticEditorFlags: 0
  m_IsActive: 1
--- !u!114 &1170023561
MonoBehaviour:
  m_ObjectHideFlags: 0
  m_PrefabParentObject: {fileID: 0}
  m_PrefabInternal: {fileID: 0}
  m_GameObject: {fileID: 1170023560}
  m_Enabled: 1
  m_EditorHideFlags: 0
  m_Script: {fileID: 11500000, guid: 0f17759d8c0e6704cbc0d9ff507a876c, type: 3}
  m_Name: 
  m_EditorClassIdentifier: 
  newScene: WorldMap
  newPosition: {x: -24, y: -18}
--- !u!61 &1170023562
BoxCollider2D:
  m_ObjectHideFlags: 0
  m_PrefabParentObject: {fileID: 0}
  m_PrefabInternal: {fileID: 0}
  m_GameObject: {fileID: 1170023560}
  m_Enabled: 1
  m_Density: 1
  m_Material: {fileID: 0}
  m_IsTrigger: 1
  m_UsedByEffector: 0
  m_UsedByComposite: 0
  m_Offset: {x: 0.3502388, y: 0.03807068}
  m_SpriteTilingProperty:
    border: {x: 0, y: 0, z: 0, w: 0}
    pivot: {x: 0, y: 0}
    oldSize: {x: 0, y: 0}
    newSize: {x: 0, y: 0}
    adaptiveTilingThreshold: 0
    drawMode: 0
    adaptiveTiling: 0
  m_AutoTiling: 0
  serializedVersion: 2
  m_Size: {x: 1.9745712, y: 1.0761414}
  m_EdgeRadius: 0
--- !u!4 &1170023563
Transform:
  m_ObjectHideFlags: 0
  m_PrefabParentObject: {fileID: 0}
  m_PrefabInternal: {fileID: 0}
  m_GameObject: {fileID: 1170023560}
  m_LocalRotation: {x: 0, y: 0, z: 0, w: 1}
  m_LocalPosition: {x: -1.09, y: 15.92, z: -0.0078125}
  m_LocalScale: {x: 1, y: 1, z: 1}
  m_Children: []
  m_Father: {fileID: 0}
  m_RootOrder: 3
  m_LocalEulerAnglesHint: {x: 0, y: 0, z: 0}
--- !u!1001 &1252448062
Prefab:
  m_ObjectHideFlags: 0
  serializedVersion: 2
  m_Modification:
    m_TransformParent: {fileID: 0}
    m_Modifications:
    - target: {fileID: 4729893448785748, guid: 479efd205d793e24b9f204a3d44ad7c7, type: 2}
      propertyPath: m_LocalPosition.x
      value: -51.4
      objectReference: {fileID: 0}
    - target: {fileID: 4729893448785748, guid: 479efd205d793e24b9f204a3d44ad7c7, type: 2}
      propertyPath: m_LocalPosition.y
      value: 41
      objectReference: {fileID: 0}
    - target: {fileID: 4729893448785748, guid: 479efd205d793e24b9f204a3d44ad7c7, type: 2}
      propertyPath: m_LocalPosition.z
      value: 0
      objectReference: {fileID: 0}
    - target: {fileID: 4729893448785748, guid: 479efd205d793e24b9f204a3d44ad7c7, type: 2}
      propertyPath: m_LocalRotation.x
      value: 0
      objectReference: {fileID: 0}
    - target: {fileID: 4729893448785748, guid: 479efd205d793e24b9f204a3d44ad7c7, type: 2}
      propertyPath: m_LocalRotation.y
      value: 0
      objectReference: {fileID: 0}
    - target: {fileID: 4729893448785748, guid: 479efd205d793e24b9f204a3d44ad7c7, type: 2}
      propertyPath: m_LocalRotation.z
      value: 0
      objectReference: {fileID: 0}
    - target: {fileID: 4729893448785748, guid: 479efd205d793e24b9f204a3d44ad7c7, type: 2}
      propertyPath: m_LocalRotation.w
      value: 1
      objectReference: {fileID: 0}
    - target: {fileID: 4729893448785748, guid: 479efd205d793e24b9f204a3d44ad7c7, type: 2}
      propertyPath: m_RootOrder
      value: 4
      objectReference: {fileID: 0}
    - target: {fileID: 23207193191912794, guid: 479efd205d793e24b9f204a3d44ad7c7,
        type: 2}
      propertyPath: m_SortingLayerID
      value: 2032015841
      objectReference: {fileID: 0}
    - target: {fileID: 23207193191912794, guid: 479efd205d793e24b9f204a3d44ad7c7,
        type: 2}
      propertyPath: m_SortingLayer
      value: 2
      objectReference: {fileID: 0}
    - target: {fileID: 23432624516584464, guid: 479efd205d793e24b9f204a3d44ad7c7,
        type: 2}
      propertyPath: m_SortingLayerID
      value: 2032015841
      objectReference: {fileID: 0}
    - target: {fileID: 23432624516584464, guid: 479efd205d793e24b9f204a3d44ad7c7,
        type: 2}
      propertyPath: m_SortingLayer
      value: 2
      objectReference: {fileID: 0}
    - target: {fileID: 23492496329269854, guid: 479efd205d793e24b9f204a3d44ad7c7,
        type: 2}
      propertyPath: m_SortingLayerID
      value: 2032015841
      objectReference: {fileID: 0}
    - target: {fileID: 23492496329269854, guid: 479efd205d793e24b9f204a3d44ad7c7,
        type: 2}
      propertyPath: m_SortingLayer
      value: 2
      objectReference: {fileID: 0}
    m_RemovedComponents: []
  m_ParentPrefab: {fileID: 100100000, guid: 479efd205d793e24b9f204a3d44ad7c7, type: 2}
  m_IsPrefabParent: 0
--- !u!1001 &1362357218
Prefab:
  m_ObjectHideFlags: 0
  serializedVersion: 2
  m_Modification:
    m_TransformParent: {fileID: 0}
    m_Modifications:
    - target: {fileID: 4877416950172522, guid: 39c6f442aa2174047910f10f0c6b8e8f, type: 2}
      propertyPath: m_LocalPosition.x
      value: 0
      objectReference: {fileID: 0}
    - target: {fileID: 4877416950172522, guid: 39c6f442aa2174047910f10f0c6b8e8f, type: 2}
      propertyPath: m_LocalPosition.y
      value: 0
      objectReference: {fileID: 0}
    - target: {fileID: 4877416950172522, guid: 39c6f442aa2174047910f10f0c6b8e8f, type: 2}
      propertyPath: m_LocalPosition.z
      value: -6.0247703
      objectReference: {fileID: 0}
    - target: {fileID: 4877416950172522, guid: 39c6f442aa2174047910f10f0c6b8e8f, type: 2}
      propertyPath: m_LocalRotation.x
      value: -0
      objectReference: {fileID: 0}
    - target: {fileID: 4877416950172522, guid: 39c6f442aa2174047910f10f0c6b8e8f, type: 2}
      propertyPath: m_LocalRotation.y
      value: -0
      objectReference: {fileID: 0}
    - target: {fileID: 4877416950172522, guid: 39c6f442aa2174047910f10f0c6b8e8f, type: 2}
      propertyPath: m_LocalRotation.z
      value: -0
      objectReference: {fileID: 0}
    - target: {fileID: 4877416950172522, guid: 39c6f442aa2174047910f10f0c6b8e8f, type: 2}
      propertyPath: m_LocalRotation.w
      value: 1
      objectReference: {fileID: 0}
    - target: {fileID: 4877416950172522, guid: 39c6f442aa2174047910f10f0c6b8e8f, type: 2}
      propertyPath: m_RootOrder
      value: 5
      objectReference: {fileID: 0}
    m_RemovedComponents: []
  m_ParentPrefab: {fileID: 100100000, guid: 39c6f442aa2174047910f10f0c6b8e8f, type: 2}
  m_IsPrefabParent: 0
--- !u!1001 &1960566617
Prefab:
  m_ObjectHideFlags: 0
  serializedVersion: 2
  m_Modification:
    m_TransformParent: {fileID: 0}
    m_Modifications:
    - target: {fileID: 114485212689137276, guid: 029c17544fabbde43bb73a9f1d1359b7,
        type: 2}
      propertyPath: dialogue.Array.size
      value: 5
      objectReference: {fileID: 0}
    - target: {fileID: 4704459060425080, guid: 029c17544fabbde43bb73a9f1d1359b7, type: 2}
      propertyPath: m_LocalPosition.x
      value: 4.4
      objectReference: {fileID: 0}
    - target: {fileID: 4704459060425080, guid: 029c17544fabbde43bb73a9f1d1359b7, type: 2}
      propertyPath: m_LocalPosition.y
      value: 5.6
      objectReference: {fileID: 0}
    - target: {fileID: 4704459060425080, guid: 029c17544fabbde43bb73a9f1d1359b7, type: 2}
      propertyPath: m_LocalPosition.z
      value: 0
      objectReference: {fileID: 0}
    - target: {fileID: 4704459060425080, guid: 029c17544fabbde43bb73a9f1d1359b7, type: 2}
      propertyPath: m_LocalRotation.x
      value: 0
      objectReference: {fileID: 0}
    - target: {fileID: 4704459060425080, guid: 029c17544fabbde43bb73a9f1d1359b7, type: 2}
      propertyPath: m_LocalRotation.y
      value: 0
      objectReference: {fileID: 0}
    - target: {fileID: 4704459060425080, guid: 029c17544fabbde43bb73a9f1d1359b7, type: 2}
      propertyPath: m_LocalRotation.z
      value: 0
      objectReference: {fileID: 0}
    - target: {fileID: 4704459060425080, guid: 029c17544fabbde43bb73a9f1d1359b7, type: 2}
      propertyPath: m_LocalRotation.w
      value: 1
      objectReference: {fileID: 0}
    - target: {fileID: 4704459060425080, guid: 029c17544fabbde43bb73a9f1d1359b7, type: 2}
      propertyPath: m_RootOrder
      value: 2
      objectReference: {fileID: 0}
    - target: {fileID: 114485212689137276, guid: 029c17544fabbde43bb73a9f1d1359b7,
        type: 2}
      propertyPath: dialogue.Array.data[0]
      value: This place is spooky...
      objectReference: {fileID: 0}
    - target: {fileID: 114485212689137276, guid: 029c17544fabbde43bb73a9f1d1359b7,
        type: 2}
      propertyPath: dialogue.Array.data[1]
      value: In a different reality, maybe one where the names are backwards
      objectReference: {fileID: 0}
    - target: {fileID: 114485212689137276, guid: 029c17544fabbde43bb73a9f1d1359b7,
        type: 2}
      propertyPath: dialogue.Array.data[2]
      value: This could have been a dramatic boss fight here
      objectReference: {fileID: 0}
    - target: {fileID: 114485212689137276, guid: 029c17544fabbde43bb73a9f1d1359b7,
        type: 2}
      propertyPath: dialogue.Array.data[3]
      value: but I guess everyone picked this reality instead
      objectReference: {fileID: 0}
    - target: {fileID: 114485212689137276, guid: 029c17544fabbde43bb73a9f1d1359b7,
        type: 2}
      propertyPath: dialogue.Array.data[4]
      value: even though it is prety tame (wink)
      objectReference: {fileID: 0}
    m_RemovedComponents: []
  m_ParentPrefab: {fileID: 100100000, guid: 029c17544fabbde43bb73a9f1d1359b7, type: 2}
  m_IsPrefabParent: 0
